…
```r
argentina_clean <- argentina_data %>% 
  clean_names() %>% 
  pivot_longer(cols = c(l_acuta, h_similis, u_uruguayensis, n_succinea), 
               names_to = "species",
               values_to = "counts") %>% 
  rename(site = data)

argentina_clean
```

```
## # A tibble: 240 × 10
##    site  med_sand fine_sand   mud organ_mat season transect river species counts
##    <chr>    <dbl>     <dbl> <dbl>     <dbl>  <dbl>    <dbl> <dbl> <chr>    <dbl>
##  1 A1        2.46      72.2  25.4      6.59      1        1     0 l_acuta     22
##  2 A1        2.46      72.2  25.4      6.59      1        1     0 h_simi…      5
##  3 A1        2.46      72.2  25.4      6.59      1        1     0 u_urug…      0
##  4 A1        2.46      72.2  25.4      6.59      1        1     0 n_succ…      0
##  5 A2        1.23      70    28.8      6.6       1        1     0 l_acuta     40
##  6 A2        1.23      70    28.8      6.6       1        1     0 h_simi…      3
##  7 A2        1.23      70    28.8      6.6       1        1     0 u_urug…      0
##  8 A2        1.23      70    28.8      6.6       1        1     0 n_succ…      0
##  9 A3        0.56      67.4  32        6.48      1        1     0 l_acuta     54
## 10 A3        0.56      67.4  32        6.48      1        1     0 h_simi…     11
## # … with 230 more rows
```
…
```r
site_data <- tibble(site = rep(c(1,2,3,4,5), each = 10),
       concentration = c(abs(rnorm(10, 8, 3)),
                         abs(rnorm(10, 10, 10)),
                         abs(rnorm(10, 4, 0.5)),
                         abs(rnorm(10, 15, 8)),
                         abs(rnorm(10, 5, 3))))

site_data
```

```
## # A tibble: 50 × 2
##     site concentration
##    <dbl>         <dbl>
##  1     1          5.84
##  2     1          6.36
##  3     1         12.6 
##  4     1          7.88
##  5     1          9.15
##  6     1         14.7 
##  7     1         13.3 
##  8     1         11.7 
##  9     1         15.8 
## 10     1         13.3 
## # … with 40 more rows
```
…
